^C:\USERS\USUARIO\DESKTOP\NUEVA CARPETA\MFCAPPLICATION1 (4)\MFCAPPLICATION1\STDAFX.CPP
/c /Zi /nologo /W3 /WX- /sdl /Od /D WIN32 /D _WINDOWS /D _DEBUG /D _UNICODE /D UNICODE /D _AFXDLL /Gm /EHsc /RTC1 /MDd /GS /fp:precise /Zc:wchar_t /Zc:forScope /Yc"stdafx.h" /Fp"X64\DEBUG\MFCAPPLICATION1.PCH" /Fo"X64\DEBUG\\" /Fd"X64\DEBUG\VC110.PDB" /Gd /TP C:\USERS\USUARIO\DESKTOP\NUEVA CARPETA\MFCAPPLICATION1 (4)\MFCAPPLICATION1\STDAFX.CPP
^C:\USERS\USUARIO\DESKTOP\NUEVA CARPETA\MFCAPPLICATION1 (4)\MFCAPPLICATION1\EYEXHOST.CPP
/c /Zi /nologo /W3 /WX- /sdl /Od /D WIN32 /D _WINDOWS /D _DEBUG /D _UNICODE /D UNICODE /D _AFXDLL /Gm /EHsc /RTC1 /MDd /GS /fp:precise /Zc:wchar_t /Zc:forScope /Yu"stdafx.h" /Fp"X64\DEBUG\MFCAPPLICATION1.PCH" /Fo"X64\DEBUG\\" /Fd"X64\DEBUG\VC110.PDB" /Gd /TP C:\USERS\USUARIO\DESKTOP\NUEVA CARPETA\MFCAPPLICATION1 (4)\MFCAPPLICATION1\EYEXHOST.CPP
^C:\USERS\USUARIO\DESKTOP\NUEVA CARPETA\MFCAPPLICATION1 (4)\MFCAPPLICATION1\MFCAPPLICATION1.CPP
/c /Zi /nologo /W3 /WX- /sdl /Od /D WIN32 /D _WINDOWS /D _DEBUG /D _UNICODE /D UNICODE /D _AFXDLL /Gm /EHsc /RTC1 /MDd /GS /fp:precise /Zc:wchar_t /Zc:forScope /Yu"stdafx.h" /Fp"X64\DEBUG\MFCAPPLICATION1.PCH" /Fo"X64\DEBUG\\" /Fd"X64\DEBUG\VC110.PDB" /Gd /TP C:\USERS\USUARIO\DESKTOP\NUEVA CARPETA\MFCAPPLICATION1 (4)\MFCAPPLICATION1\MFCAPPLICATION1.CPP
^C:\USERS\USUARIO\DESKTOP\NUEVA CARPETA\MFCAPPLICATION1 (4)\MFCAPPLICATION1\MFCAPPLICATION1DLG.CPP
/c /Zi /nologo /W3 /WX- /sdl /Od /D WIN32 /D _WINDOWS /D _DEBUG /D _UNICODE /D UNICODE /D _AFXDLL /Gm /EHsc /RTC1 /MDd /GS /fp:precise /Zc:wchar_t /Zc:forScope /Yu"stdafx.h" /Fp"X64\DEBUG\MFCAPPLICATION1.PCH" /Fo"X64\DEBUG\\" /Fd"X64\DEBUG\VC110.PDB" /Gd /TP C:\USERS\USUARIO\DESKTOP\NUEVA CARPETA\MFCAPPLICATION1 (4)\MFCAPPLICATION1\MFCAPPLICATION1DLG.CPP
^C:\USERS\USUARIO\DESKTOP\PROGRAMA TFG\MFCAPPLICATION1 (4)\MFCAPPLICATION1\STDAFX.CPP
/c /Zi /nologo /W3 /WX- /sdl /Od /D WIN32 /D _WINDOWS /D _DEBUG /D _UNICODE /D UNICODE /D _AFXDLL /Gm /EHsc /RTC1 /MDd /GS /fp:precise /Zc:wchar_t /Zc:forScope /Yc"stdafx.h" /Fp"X64\DEBUG\MFCAPPLICATION1.PCH" /Fo"X64\DEBUG\\" /Fd"X64\DEBUG\VC110.PDB" /Gd /TP C:\USERS\USUARIO\DESKTOP\PROGRAMA TFG\MFCAPPLICATION1 (4)\MFCAPPLICATION1\STDAFX.CPP
^C:\USERS\USUARIO\DESKTOP\PROGRAMA TFG\MFCAPPLICATION1 (4)\MFCAPPLICATION1\EYEXHOST.CPP
/c /Zi /nologo /W3 /WX- /sdl /Od /D WIN32 /D _WINDOWS /D _DEBUG /D _UNICODE /D UNICODE /D _AFXDLL /Gm /EHsc /RTC1 /MDd /GS /fp:precise /Zc:wchar_t /Zc:forScope /Yu"stdafx.h" /Fp"X64\DEBUG\MFCAPPLICATION1.PCH" /Fo"X64\DEBUG\\" /Fd"X64\DEBUG\VC110.PDB" /Gd /TP C:\USERS\USUARIO\DESKTOP\PROGRAMA TFG\MFCAPPLICATION1 (4)\MFCAPPLICATION1\EYEXHOST.CPP
^C:\USERS\USUARIO\DESKTOP\PROGRAMA TFG\MFCAPPLICATION1 (4)\MFCAPPLICATION1\MFCAPPLICATION1.CPP
/c /Zi /nologo /W3 /WX- /sdl /Od /D WIN32 /D _WINDOWS /D _DEBUG /D _UNICODE /D UNICODE /D _AFXDLL /Gm /EHsc /RTC1 /MDd /GS /fp:precise /Zc:wchar_t /Zc:forScope /Yu"stdafx.h" /Fp"X64\DEBUG\MFCAPPLICATION1.PCH" /Fo"X64\DEBUG\\" /Fd"X64\DEBUG\VC110.PDB" /Gd /TP C:\USERS\USUARIO\DESKTOP\PROGRAMA TFG\MFCAPPLICATION1 (4)\MFCAPPLICATION1\MFCAPPLICATION1.CPP
^C:\USERS\USUARIO\DESKTOP\PROGRAMA TFG\MFCAPPLICATION1 (4)\MFCAPPLICATION1\MFCAPPLICATION1DLG.CPP
/c /Zi /nologo /W3 /WX- /sdl /Od /D WIN32 /D _WINDOWS /D _DEBUG /D _UNICODE /D UNICODE /D _AFXDLL /Gm /EHsc /RTC1 /MDd /GS /fp:precise /Zc:wchar_t /Zc:forScope /Yu"stdafx.h" /Fp"X64\DEBUG\MFCAPPLICATION1.PCH" /Fo"X64\DEBUG\\" /Fd"X64\DEBUG\VC110.PDB" /Gd /TP C:\USERS\USUARIO\DESKTOP\PROGRAMA TFG\MFCAPPLICATION1 (4)\MFCAPPLICATION1\MFCAPPLICATION1DLG.CPP
